Connecting to an API and Making a Word Cloud
…
anti_join() the data frame from unnest_tokens() and the stop_words data frame

Sum up the number of times each word appears for weighting in the word cloud (count() works well!)

Making data for word cloud

library(dplyr); library(tidytext)
wcData <- parsed$articles$title %>% 
  as_tibble() %>% 
  unnest_tokens(word, value) %>% 
  anti_join(stop_words) %>% 
  count(word, sort = TRUE)
wcData

## # A tibble: 326 x 2
##    word           n
##    <chr>      <int>
##  1 juneteenth    99
##  2 holiday       47
##  3 federal       28
##  4 bill          14
##  5 biden         12
##  6 u.s           10
##  7               9
##  8 black          8
##  9 day            8
## 10 slavery        8
## # ... with 316 more rows
…
